大三上/计算机系统(3)/Experiment/3/MyExp3(1)/MyExp3/test_run_dir/Junction_should_pass/Junction.vcd
$date
2023-09-18T13:18+0000
$end
$version
0.2
$end
$comment

$end
$timescale 1ns  $end
$scope module Junction $end
 $var wire 1 & io_sw_op $end
 $var wire 1 1 regFile $end
 $var wire 32 6 io_wrData $end
 $var wire 1 ; io_lw_op $end
 $var wire 5 = io_pcIn $end
 $var wire 32 F io_RS1_out $end
 $var wire 1 K io_sub_op $end
 $var wire 1 L mem $end
 $var wire 1 U decoder $end
 $var wire 1 Y clock $end
 $var wire 32 c io_RS2_out $end
 $var wire 1 e io_add_op $end
 $var wire 1 g pc $end
 $var wire 1 m io_wrEna $end
 $var wire 1 s reset $end
 $var wire 5 u io_wrAddr $end
 $var wire 1 } io_pc_sel $end
 $var wire 1 "# io_nop $end
  $scope module decoder $end
   $var wire 1 # io_sw_op $end
   $var wire 1 * decoderSignals_1 $end
   $var wire 1 2 io_lw_op $end
   $var wire 1 4 decoderSignals_4 $end
   $var wire 1 M io_nop $end
   $var wire 1 N decoderSignals_0 $end
   $var wire 1 V decoderSignals_3 $end
   $var wire 32 ] io_Instr_word $end
   $var wire 1 d io_sub_op $end
   $var wire 1 f decoderSignals_2 $end
   $var wire 1 "! io_add_op $end
  $upscope $end
  $scope module pc $end
   $var wire 32 , io_pcIn $end
   $var wire 1 < reset $end
   $var wire 5 R pc $end
   $var wire 32 [ io_pcOut $end
   $var wire 1 w io_pc_sel $end
   $var wire 1 "" clock $end
  $upscope $end
  $scope module mem $end
   $var wire 32 ! mem $end
   $var wire 5 " io_wrAddr $end
   $var wire 5 . mem_io_rdData_MPORT_addr_pipe_0 $end
   $var wire 1 > clock $end
   $var wire 32 A io_wrData $end
   $var wire 5 J io_rdAddr $end
   $var wire 1 S mem_io_rdData_MPORT_en_pipe_0 $end
   $var wire 32 i io_rdData $end
   $var wire 1 ~ io_wrEna $end
    $scope module mem $end
     $var wire 32 q MPORT $end
      $scope module MPORT $end
       $var wire 5 % pipeline_addr_0 $end
       $var wire 1 ' valid $end
       $var wire 32 + data $end
       $var wire 1 7 pipeline_valid_0 $end
       $var wire 1 D en $end
       $var wire 32 Q pipeline_data_0 $end
       $var wire 1 Z mask $end
       $var wire 1 l clk $end
       $var wire 5 r addr $end
      $upscope $end
      $scope module io_rdData_MPORT $end
       $var wire 5 B addr $end
       $var wire 1 ^ en $end
       $var wire 32 a data $end
       $var wire 1 | clk $end
      $upscope $end
    $upscope $end
  $upscope $end
  $scope module regFile $end
   $var wire 32 $ regs_28 $end
   $var wire 32 ( regs_16 $end
   $var wire 32 ) regs_22 $end
   $var wire 5 - io_RS1 $end
   $var wire 32 / regs_25 $end
   $var wire 32 0 regs_2 $end
   $var wire 1 3 clock $end
   $var wire 32 5 regs_31 $end
   $var wire 32 8 regs_10 $end
   $var wire 32 9 regs_19 $end
   $var wire 32 : regs_5 $end
   $var wire 32 ? regs_13 $end
   $var wire 32 @ regs_8 $end
   $var wire 32 C io_RS1_out $end
   $var wire 32 E regs_30 $end
   $var wire 32 G regs_12 $end
   $var wire 32 H regs_27 $end
   $var wire 5 I io_Reg_WB $end
   $var wire 32 O regs_7 $end
   $var wire 32 P regs_21 $end
   $var wire 32 T regs_15 $end
   $var wire 32 W regs_24 $end
   $var wire 32 X regs_1 $end
   $var wire 1 \ io_RF_wrEn $end
   $var wire 32 _ regs_18 $end
   $var wire 32 ` regs_4 $end
   $var wire 32 b io_RS2_out $end
   $var wire 32 h regs_23 $end
   $var wire 32 j regs_11 $end
   $var wire 32 k regs_3 $end
   $var wire 5 n io_RS2 $end
   $var wire 32 o regs_26 $end
   $var wire 32 p io_WB_data $end
   $var wire 32 t regs_6 $end
   $var wire 32 v regs_20 $end
   $var wire 32 x regs_29 $end
   $var wire 32 y regs_14 $end
   $var wire 32 z regs_17 $end
   $var wire 32 { regs_9 $end
   $var wire 32 "$ regs_0 $end
  $upscope $end
$upscope $end
$enddefinitions $end
$dumpvars
0""
0;
0&
b00000000000000000000000000000000 p
b00000000000000000000000000000000 [
b00000 J
b00000000000000000000000000000000 !
b00000 -
b00000000000000000000000000000000 j
07
b00000000000000000000000000000000 8
0V
0N
b00000000000000000000000000000000 O
b00000000000000000000000000000000 :
0m
0e
b00000000000000000000000000000000 Q
b00000 r
03
0|
b00000000000000000000000000000000 h
0g
b00000000000000000000000000000000 `
b00000000000000000000000000000000 6
b00000 B
0~
b00000 %
b00000000000000000000000000000000 b
0L
b00000 n
b00000000000000000000000000000000 E
b00000000000000000000000000000000 0
0"#
0D
b00000000000000000000000000000000 y
b00000000000000000000000000000000 G
01
b00000000000000000000000000000000 {
b00000000000000000000000000000000 "$
b00000000000000000000000000000000 A
b00000000000000000000000000000000 ,
b00000000000000000000000000000000 $
b00000000000000000000000000000000 X
b00000000000000000000000000000000 C
0"!
b00000000000000000000000000000000 o
0Y
0<
b00000000000000000000000000000000 (
0'
b00000 I
b00000000000000000000000000000000 q
0S
b00000000000000000000000000000000 T
b00000000000000000000000000000000 ?
0>
b00000 .
b00000000000000000000000000000000 k
0U
0M
b00000000000000000000000000000000 9
0#
0l
0d
b00000000000000000000000000000000 P
02
0f
04
b00000000000000000000000000000000 5
0}
b00000000000000000000000000000000 i
b00000 u
0K
b00000000000000000000000000000000 a
b00000000000000000000000000000000 /
0w
b00000000000000000000000000000000 c
b00000000000000000000000000000000 x
b00000000000000000000000000000000 F
b00000 R
b00000 =
b00000000000000000000000000000000 )
1Z
b00000000000000000000000000000000 z
0\
b00000000000000000000000000000000 ]
b00000000000000000000000000000000 H
b00000000000000000000000000000000 @
0*
b00000000000000000000000000000000 +
b00000 "
0s
0^
b00000000000000000000000000000000 t
b00000000000000000000000000000000 _
b00000000000000000000000000000000 W
b00000000000000000000000000000000 v
$end
#0
1<
14
1s
1"#
1M
#1
13
b00000000000000000000000000011111 5
b00000000000000000000000000010111 h
1S
b00000000000000000000000000001011 j
b00000000000000000000000000011001 /
b00000000000000000000000000000010 0
b00000000000000000000000000001110 y
b00000000000000000000000000001100 G
b00000000000000000000000000010001 z
1""
b00000000000000000000000000011011 H
b00000000000000000000000000001001 {
1^
1|
b00000000000000000000000000000110 t
b00000000000000000000000000010010 _
b00000000000000000000000000000100 `
b00000000000000000000000000000001 X
b00000000000000000000000000010100 v
1Y
b00000000000000000000000000011010 o
b00000000000000000000000000011110 E
b00000000000000000000000000011101 x
b00000000000000000000000000010000 (
1>
b00000000000000000000000000010110 )
b00000000000000000000000000001111 T
b00000000000000000000000000001101 ?
b00000000000000000000000000001000 @
b00000000000000000000000000001010 8
b00000000000000000000000000000011 k
b00000000000000000000000000010011 9
1l
b00000000000000000000000000011100 $
b00000000000000000000000000011000 W
b00000000000000000000000000000111 O
b00000000000000000000000000000101 :
b00000000000000000000000000010101 P
#6
03
0<
0Y
1D
1'
1~
b00000000010000110000100000100000 6
0>
0s
0""
0l
b00000000010000110000100000100000 +
1m
0|
b00000000010000110000100000100000 A
#11
13
b00000000010000110000100000100000 Q
04
b00001 R
b00001 J
b00000000010000110000100000100000 i
b00000000010000110000100000100000 a
17
b00000000000000000000000000000011 b
0M
b00000000000000000000000000000011 c
1N
b00000000000000000000000000000010 F
1"!
1""
1e
b00000000010000110000100000100000 ]
0"#
b00001 I
1|
b00010 -
b00000000000000000000000000000010 C
1Y
b00000000000000000000000000000101 p
b00000000000000000000000000000001 [
1>
1\
1l
b00011 n
#16
03
b00001 u
b00001 r
b00001 "
0Y
0""
0l
b00000000101001100000000000100010 6
b00000000101001100000000000100010 +
0|
b00000000101001100000000000100010 A
0>
#21
13
b00000000101001100000000000100010 Q
b00010 R
b00010 J
1K
b00000000101001100000000000100010 i
b00000000101001100000000000100010 a
b00000000000000000000000000000110 b
b00000000000000000000000000000110 c
0N
b00000000000000000000000000000101 F
0"!
1d
1""
0e
1*
b00000000101001100000000000100010 ]
b00000 I
1|
b00001 B
b00101 -
b00001 %
b00000000000000000000000000000101 X
b00000000000000000000000000000101 C
b00001 .
1Y
b00000000000000000000000000000000 p
b00000000000000000000000000000010 [
1>
1l
b00110 n
#26
03
b00010 u
b00010 r
b00010 "
0Y
0""
0l
b10001100010001010000000001100100 6
b10001100010001010000000001100100 +
0|
b10001100010001010000000001100100 A
0>
#31
13
1f
b10001100010001010000000001100100 Q
b00011 R
b00011 J
0K
b10001100010001010000000001100100 i
b10001100010001010000000001100100 a
b00000000000000000000000000000101 b
b00000000000000000000000000000101 c
b00000000000000000000000000000010 F
0d
12
1""
0*
b10001100010001010000000001100100 ]
1|
b00010 B
b00010 -
b00010 %
b00000000000000000000000000000001 X
b00000000000000000000000000000010 C
b00010 .
1Y
b00000000000000000000000000000011 [
1>
0\
1l
1;
b00101 n
#36
03
b00011 u
b00011 r
b00011 "
0Y
0""
0l
b10101100010001010000000001101000 6
b10101100010001010000000001101000 +
0|
b10101100010001010000000001101000 A
0>
#41
13
b00011 B
b10101100010001010000000001101000 Q
0f
b00011 %
b00100 R
b00011 .
b00100 J
1Y
1&
b10101100010001010000000001101000 i
b10101100010001010000000001101000 a
b00000000000000000000000000000100 [
1>
1#
02
1""
1V
b10101100010001010000000001101000 ]
1l
1|
0;
#46
03
0Y
1}
0""
1w
0l
0|
0>
#51
13
b00100 B
b00000 -
14
b00000000000000000000000000000000 C
b00000 R
b00100 .
b00000 J
1Y
0&
b00000000000000000000000000000000 i
b00000000000000000000000000000000 a
b00000000000000000000000000000000 [
1>
b00000000000000000000000000000000 b
1M
b00000000000000000000000000000000 c
b00000000000000000000000000000000 F
0#
0V
1""
b00000000000000000000000000000000 ]
1l
1"#
1|
b00000 n
#56
03
0Y
0""
0l
0|
0>
#61
13
b00000 B
b00010 -
04
b00000000000000000000000000000010 C
b00000 .
1Y
b00000000010000110000100000100000 i
b00000000010000110000100000100000 a
b00000000000000000000000000000101 p
1>
b00000000000000000000000000000011 b
0M
1\
b00000000000000000000000000000011 c
1N
b00000000000000000000000000000010 F
1"!
1""
1e
b00000000010000110000100000100000 ]
1l
0"#
b00001 I
1|
b00011 n
#66
03
0Y
0}
0""
0w
0l
0|
0>
#71
13
b00000000000000000000000000000101 X
b00001 R
b00001 J
1Y
1""
1l
b00000000000000000000000000000001 [
1|
1>
#76
03
0Y
0""
0l
0|
0>
#81
13
b00010 R
b00010 J
1K
b00000000101001100000000000100010 i
b00000000101001100000000000100010 a
b00000000000000000000000000000110 b
b00000000000000000000000000000110 c
0N
b00000000000000000000000000000101 F
0"!
1d
1""
0e
1*
b00000000101001100000000000100010 ]
b00000 I
1|
b00001 B
b00101 -
b00000000000000000000000000000101 C
b00001 .
1Y
b00000000000000000000000000000000 p
b00000000000000000000000000000010 [
1>
1l
b00110 n
#86
03
0Y
0""
0l
0|
0>
#91
13
1f
b00011 R
b00011 J
0K
b10001100010001010000000001100100 i
b10001100010001010000000001100100 a
b00000000000000000000000000000101 b
b00000000000000000000000000000101 c
b00000000000000000000000000000010 F
0d
12
1""
0*
b10001100010001010000000001100100 ]
1|
b00010 B
b00010 -
b00000000000000000000000000000001 X
b00000000000000000000000000000010 C
b00010 .
1Y
b00000000000000000000000000000011 [
1>
0\
1l
1;
b00101 n
#96
03
0Y
0""
0l
0|
0>
#101
13
b00011 B
0f
b00100 R
b00011 .
b00100 J
1Y
1&
b10101100010001010000000001101000 i
b10101100010001010000000001101000 a
b00000000000000000000000000000100 [
1>
1#
02
1""
1V
b10101100010001010000000001101000 ]
1l
1|
0;
#106
03
b00000 u
0Y
0""
0l
b00000000000000000000000000000000 6
0m
0|
0>
